…
- Tibbles only print the first 10 rows and all the columns that fit on a screen. - Each column displays its data type. 
- You will not accidently print too much. 



```r
tibble(
  a = lubridate::now() + runif(1e3) * 86400,
  b = lubridate::today() + runif(1e3) * 30,
  c = 1:1e3,
  d = runif(1e3),
  e = sample(letters, 1e3, replace = TRUE)
)
## # A tibble: 1,000 × 5
##                      a          b     c          d     e
##                 <dttm>     <date> <int>      <dbl> <chr>
## 1  2017-02-18 05:28:37 2017-03-08     1 0.02150370     f
## 2  2017-02-17 22:08:24 2017-03-08     2 0.08031493     k
## 3  2017-02-18 02:03:13 2017-03-07     3 0.11670172     u
## 4  2017-02-18 15:16:10 2017-03-08     4 0.24552337     h
## 5  2017-02-18 00:41:20 2017-03-04     5 0.11232662     b
## 6  2017-02-18 06:26:41 2017-03-08     6 0.52834632     m
## 7  2017-02-18 10:08:57 2017-03-15     7 0.78928491     v
## 8  2017-02-18 13:28:41 2017-03-15     8 0.80388276     h
## 9  2017-02-18 11:35:47 2017-03-18     9 0.45767339     d
## 10 2017-02-18 05:40:18 2017-02-24    10 0.18177950     t
## # ... with 990 more rows
```
…
